;bigrams
('snel', 'reageren');120
('weet', 'niet');104
('goed', 'helpen');62
('niet', 'weten');59
('jurist', 'niet');99
('niet', 'goed');56
('telefonisch', 'contact');54
('zaak', 'niet');67
('persoonlijk', 'contact');52
('contact', 'opnemen');48
('goed', 'gedaan');48
('heel', 'goed');45
('pro', 'actief');39
('best', 'gedaan');33
('via', 'mail');32
('niet', 'echt');29
('jurist', 'goed');29
('prima', 'gedaan');27
('jurist', 'prima');26
('niet', 'nodig');25
('prima', 'helpen');25
('jurist', 'zaak');25
('actie', 'ondernemen');23
('snel', 'reactie');22
('stand', 'zaken');21
('snel', 'handelen');20
('liggen', 'niet');19
('terug', 'bellen');18
('niet', 'helemaal');18
('per', 'mail');18
('niet', 'direct');17
('e', 'mail');17
('contact', 'jurist');16
('probleem', 'oplossen');16
('goed', 'handelen');16
('zaak', 'goed');16
('niet', 'heel');16
('mooi', 'cijfer');16
('persoonlijk', 'gesprek');15
('face', 'face');15
('eigenlijk', 'niet');15
('lag', 'niet');15
('heel', 'tevreden');14
('niks', 'prima');14
('reageren', 'mail');14
('jurist', 'heel');14
('goed', 'verlopen');14
('helemaal', 'goed');14
('niet', 'snel');13
('niet', 'gedaan');25
('duren', 'erg');13
('zaak', 'behandelen');13
('zaak', 'snel');23
('goed', 'behandelen');13
('gaan', 'prima');13
('snel', 'afhandelen');13
('niet', 'duidelijk');12
('uiteindelijk', 'niet');12
('allemaal', 'goed');12
('hoogte', 'houden');12
('tevreden', 'jurist');12
('niks', 'goed');12
('initiatief', 'nemen');11
('niet', 'toepassing');11
('werk', 'leveren');11
('niet', 'hoeven');11
('snel', 'afhandeling');11
('goed', 'werk');21
('snel', 'contact');11
('denken', 'niet');11
('niet', 'das');11
('erg', 'goed');11
('contact', 'krijgen');11
('vraag', 'niet');10
('jurist', 'werk');10
('fijn', 'gevonden');10
('contact', 'niet');10
('tegenpartij', 'niet');10
('prima', 'werk');10
('prima', 'geregeld');10
('vond', 'niet');10
('vragen', 'stellen');10
('jurist', 'das');10
('goed', 'komen');10
('moment', 'niet');10
('contact', 'zoeken');10
('verschillende', 'juristen');10
('niet', 'bereikbaar');10
('eigenlijk', 'niks');10
('niet', 'via');9
('twee', 'juristen');9
('ipv', 'via');9
('zaak', 'bezig');9
('woord', 'staan');9
('telefonisch', 'bereikbaarheid');9
