;trigrams
('goed', 'hoogte', 'gehouden');102
('heel', 'goed', 'helpen');74
('goed', 'snel', 'helpen');98
('denken', 'goed', 'mee');41
('zaak', 'goed', 'afhandelen');37
('goed', 'advies', 'krijgen');37
('goed', 'einde', 'brengen');36
('erg', 'goed', 'helpen');35
('goed', 'helpen', 'goed');89
('vriendelijk', 'woord', 'staan');32
('snel', 'reactie', 'vragen');32
('snel', 'reactie', 'duidelijk');32
('zaak', 'goed', 'einde');30
('goede', 'duidelijk', 'communicatie');28
('snel', 'reactie', 'goed');28
('snel', 'correct', 'afhandeling');27
('zaak', 'tevredenheid', 'oplossen');26
('snel', 'reactie', 'goede');25
('heel', 'erg', 'goed');25
('voelen', 'serieus', 'genomen');24
('snel', 'duidelijk', 'communicatie');24
('goede', 'communicatie', 'snel');23
('snel', 'antwoord', 'vragen');23
('geld', 'terug', 'krijgen');23
('goed', 'resultaat', 'behalen');22
('goed', 'woord', 'staan');20
('goede', 'snel', 'service');20
